<?xml version="1.0" standalone="yes"?>
<!-- SVG graphic -->
<svg xmlns='http://www.w3.org/2000/svg' xmlns:xlink='http://www.w3.org/1999/xlink'
 version="1.1">
<rect x="0" y="0" width="6" height="200" stroke="black" stroke-width="1" fill="blue" tooltip="enable"><title>(0,519118)</title></rect><rect x="6" y="91.1165" width="6" height="108.884" stroke="black" stroke-width="1" fill="blue" tooltip="enable"><title>(0.039994,282617)</title></rect><rect x="12" y="111.523" width="6" height="88.477" stroke="black" stroke-width="1" fill="blue" tooltip="enable"><title>(0.079988,229650)</title></rect><rect x="18" y="123.183" width="6" height="76.8172" stroke="black" stroke-width="1" fill="blue" tooltip="enable"><title>(0.119982,199386)</title></rect><rect x="24" y="132.457" width="6" height="67.5434" stroke="black" stroke-width="1" fill="blue" tooltip="enable"><title>(0.159976,175315)</title></rect><rect x="30" y="140.13" width="6" height="59.8704" stroke="black" stroke-width="1" fill="blue" tooltip="enable"><title>(0.19997,155399)</title></rect><rect x="36" y="146.499" width="6" height="53.5011" stroke="black" stroke-width="1" fill="blue" tooltip="enable"><title>(0.239964,138867)</title></rect><rect x="42" y="152.409" width="6" height="47.5915" stroke="black" stroke-width="1" fill="blue" tooltip="enable"><title>(0.279958,123528)</title></rect><rect x="48" y="157.938" width="6" height="42.0625" stroke="black" stroke-width="1" fill="blue" tooltip="enable"><title>(0.319952,109177)</title></rect><rect x="54" y="162.667" width="6" height="37.3333" stroke="black" stroke-width="1" fill="blue" tooltip="enable"><title>(0.359946,96902)</title></rect><rect x="60" y="167.024" width="6" height="32.9763" stroke="black" stroke-width="1" fill="blue" tooltip="enable"><title>(0.39994,85593)</title></rect><rect x="66" y="170.985" width="6" height="29.0146" stroke="black" stroke-width="1" fill="blue" tooltip="enable"><title>(0.439934,75310)</title></rect><rect x="72" y="174.423" width="6" height="25.5772" stroke="black" stroke-width="1" fill="blue" tooltip="enable"><title>(0.479928,66388)</title></rect><rect x="78" y="177.589" width="6" height="22.4107" stroke="black" stroke-width="1" fill="blue" tooltip="enable"><title>(0.519922,58169)</title></rect><rect x="84" y="180.453" width="6" height="19.5474" stroke="black" stroke-width="1" fill="blue" tooltip="enable"><title>(0.559916,50737)</title></rect><rect x="90" y="182.596" width="6" height="17.4037" stroke="black" stroke-width="1" fill="blue" tooltip="enable"><title>(0.59991,45173)</title></rect><rect x="96" y="184.867" width="6" height="15.1326" stroke="black" stroke-width="1" fill="blue" tooltip="enable"><title>(0.639904,39278)</title></rect><rect x="102" y="186.689" width="6" height="13.3107" stroke="black" stroke-width="1" fill="blue" tooltip="enable"><title>(0.679898,34549)</title></rect><rect x="108" y="188.338" width="6" height="11.6617" stroke="black" stroke-width="1" fill="blue" tooltip="enable"><title>(0.719892,30269)</title></rect><rect x="114" y="189.832" width="6" height="10.1676" stroke="black" stroke-width="1" fill="blue" tooltip="enable"><title>(0.759886,26391)</title></rect><rect x="120" y="190.988" width="6" height="9.01221" stroke="black" stroke-width="1" fill="blue" tooltip="enable"><title>(0.79988,23392)</title></rect><rect x="126" y="192.228" width="6" height="7.77203" stroke="black" stroke-width="1" fill="blue" tooltip="enable"><title>(0.839874,20173)</title></rect><rect x="132" y="193.078" width="6" height="6.92213" stroke="black" stroke-width="1" fill="blue" tooltip="enable"><title>(0.879868,17967)</title></rect><rect x="138" y="193.775" width="6" height="6.22517" stroke="black" stroke-width="1" fill="blue" tooltip="enable"><title>(0.919862,16158)</title></rect><rect x="144" y="194.63" width="6" height="5.36988" stroke="black" stroke-width="1" fill="blue" tooltip="enable"><title>(0.959856,13938)</title></rect><rect x="150" y="195.161" width="6" height="4.83859" stroke="black" stroke-width="1" fill="blue" tooltip="enable"><title>(0.99985,12559)</title></rect><rect x="156" y="195.732" width="6" height="4.26762" stroke="black" stroke-width="1" fill="blue" tooltip="enable"><title>(1.03984,11077)</title></rect><rect x="162" y="196.234" width="6" height="3.76562" stroke="black" stroke-width="1" fill="blue" tooltip="enable"><title>(1.07984,9774)</title></rect><rect x="168" y="196.649" width="6" height="3.35145" stroke="black" stroke-width="1" fill="blue" tooltip="enable"><title>(1.11983,8699)</title></rect><rect x="174" y="197.019" width="6" height="2.98121" stroke="black" stroke-width="1" fill="blue" tooltip="enable"><title>(1.15983,7738)</title></rect><rect x="180" y="197.382" width="6" height="2.6179" stroke="black" stroke-width="1" fill="blue" tooltip="enable"><title>(1.19982,6795)</title></rect><rect x="186" y="197.612" width="6" height="2.38751" stroke="black" stroke-width="1" fill="blue" tooltip="enable"><title>(1.23981,6197)</title></rect><rect x="192" y="197.899" width="6" height="2.10126" stroke="black" stroke-width="1" fill="blue" tooltip="enable"><title>(1.27981,5454)</title></rect><rect x="198" y="198.127" width="6" height="1.87318" stroke="black" stroke-width="1" fill="blue" tooltip="enable"><title>(1.3198,4862)</title></rect><rect x="204" y="198.282" width="6" height="1.71791" stroke="black" stroke-width="1" fill="blue" tooltip="enable"><title>(1.3598,4459)</title></rect><rect x="210" y="198.462" width="6" height="1.53761" stroke="black" stroke-width="1" fill="blue" tooltip="enable"><title>(1.39979,3991)</title></rect><rect x="216" y="198.617" width="6" height="1.38273" stroke="black" stroke-width="1" fill="blue" tooltip="enable"><title>(1.43978,3589)</title></rect><rect x="222" y="198.753" width="6" height="1.24673" stroke="black" stroke-width="1" fill="blue" tooltip="enable"><title>(1.47978,3236)</title></rect><rect x="228" y="198.864" width="6" height="1.13577" stroke="black" stroke-width="1" fill="blue" tooltip="enable"><title>(1.51977,2948)</title></rect><rect x="234" y="198.996" width="6" height="1.0044" stroke="black" stroke-width="1" fill="blue" tooltip="enable"><title>(1.55977,2607)</title></rect><rect x="240" y="199.08" width="6" height="0.920407" stroke="black" stroke-width="1" fill="blue" tooltip="enable"><title>(1.59976,2389)</title></rect><rect x="246" y="199.159" width="6" height="0.841042" stroke="black" stroke-width="1" fill="blue" tooltip="enable"><title>(1.63975,2183)</title></rect><rect x="252" y="199.242" width="6" height="0.757824" stroke="black" stroke-width="1" fill="blue" tooltip="enable"><title>(1.67975,1967)</title></rect><rect x="258" y="199.321" width="6" height="0.678844" stroke="black" stroke-width="1" fill="blue" tooltip="enable"><title>(1.71974,1762)</title></rect><rect x="264" y="199.376" width="6" height="0.624136" stroke="black" stroke-width="1" fill="blue" tooltip="enable"><title>(1.75974,1620)</title></rect><rect x="270" y="199.446" width="6" height="0.553631" stroke="black" stroke-width="1" fill="blue" tooltip="enable"><title>(1.79973,1437)</title></rect><rect x="276" y="199.464" width="6" height="0.535909" stroke="black" stroke-width="1" fill="blue" tooltip="enable"><title>(1.83972,1391)</title></rect><rect x="282" y="199.504" width="6" height="0.495841" stroke="black" stroke-width="1" fill="blue" tooltip="enable"><title>(1.87972,1287)</title></rect><rect x="288" y="199.544" width="6" height="0.455773" stroke="black" stroke-width="1" fill="blue" tooltip="enable"><title>(1.91971,1183)</title></rect><rect x="294" y="199.614" width="6" height="0.386039" stroke="black" stroke-width="1" fill="blue" tooltip="enable"><title>(1.95971,1002)</title></rect><rect x="300" y="199.638" width="6" height="0.362153" stroke="black" stroke-width="1" fill="blue" tooltip="enable"><title>(1.9997,940)</title></rect><rect x="306" y="199.652" width="6" height="0.347898" stroke="black" stroke-width="1" fill="blue" tooltip="enable"><title>(2.03969,903)</title></rect><rect x="312" y="199.684" width="6" height="0.315535" stroke="black" stroke-width="1" fill="blue" tooltip="enable"><title>(2.07969,819)</title></rect><rect x="318" y="199.706" width="6" height="0.293575" stroke="black" stroke-width="1" fill="blue" tooltip="enable"><title>(2.11968,762)</title></rect><rect x="324" y="199.735" width="6" height="0.26545" stroke="black" stroke-width="1" fill="blue" tooltip="enable"><title>(2.15968,689)</title></rect><rect x="330" y="199.752" width="6" height="0.248113" stroke="black" stroke-width="1" fill="blue" tooltip="enable"><title>(2.19967,644)</title></rect><rect x="336" y="199.768" width="6" height="0.231547" stroke="black" stroke-width="1" fill="blue" tooltip="enable"><title>(2.23967,601)</title></rect><rect x="342" y="199.782" width="6" height="0.218062" stroke="black" stroke-width="1" fill="blue" tooltip="enable"><title>(2.27966,566)</title></rect><rect x="348" y="199.812" width="6" height="0.188011" stroke="black" stroke-width="1" fill="blue" tooltip="enable"><title>(2.31965,488)</title></rect><rect x="354" y="199.822" width="6" height="0.177609" stroke="black" stroke-width="1" fill="blue" tooltip="enable"><title>(2.35965,461)</title></rect><rect x="360" y="199.823" width="6" height="0.176838" stroke="black" stroke-width="1" fill="blue" tooltip="enable"><title>(2.39964,459)</title></rect><rect x="366" y="199.853" width="6" height="0.147173" stroke="black" stroke-width="1" fill="blue" tooltip="enable"><title>(2.43964,382)</title></rect><rect x="372" y="199.851" width="6" height="0.149484" stroke="black" stroke-width="1" fill="blue" tooltip="enable"><title>(2.47963,388)</title></rect><rect x="378" y="199.866" width="6" height="0.133688" stroke="black" stroke-width="1" fill="blue" tooltip="enable"><title>(2.51962,347)</title></rect><rect x="384" y="199.868" width="6" height="0.131762" stroke="black" stroke-width="1" fill="blue" tooltip="enable"><title>(2.55962,342)</title></rect><rect x="390" y="199.895" width="6" height="0.105178" stroke="black" stroke-width="1" fill="blue" tooltip="enable"><title>(2.59961,273)</title></rect><rect x="396" y="199.889" width="6" height="0.111343" stroke="black" stroke-width="1" fill="blue" tooltip="enable"><title>(2.63961,289)</title></rect><rect x="402" y="199.89" width="6" height="0.110187" stroke="black" stroke-width="1" fill="blue" tooltip="enable"><title>(2.6796,286)</title></rect><rect x="408" y="199.907" width="6" height="0.0932351" stroke="black" stroke-width="1" fill="blue" tooltip="enable"><title>(2.71959,242)</title></rect><rect x="414" y="199.914" width="6" height="0.0863002" stroke="black" stroke-width="1" fill="blue" tooltip="enable"><title>(2.75959,224)</title></rect><rect x="420" y="199.914" width="6" height="0.0855297" stroke="black" stroke-width="1" fill="blue" tooltip="enable"><title>(2.79958,222)</title></rect><rect x="426" y="199.915" width="6" height="0.0851444" stroke="black" stroke-width="1" fill="blue" tooltip="enable"><title>(2.83958,221)</title></rect><rect x="432" y="199.93" width="6" height="0.0697337" stroke="black" stroke-width="1" fill="blue" tooltip="enable"><title>(2.87957,181)</title></rect><rect x="438" y="199.931" width="6" height="0.0693484" stroke="black" stroke-width="1" fill="blue" tooltip="enable"><title>(2.91956,180)</title></rect><rect x="444" y="199.933" width="6" height="0.0666515" stroke="black" stroke-width="1" fill="blue" tooltip="enable"><title>(2.95956,173)</title></rect><rect x="450" y="199.942" width="6" height="0.0581756" stroke="black" stroke-width="1" fill="blue" tooltip="enable"><title>(2.99955,151)</title></rect><rect x="456" y="199.951" width="6" height="0.0493144" stroke="black" stroke-width="1" fill="blue" tooltip="enable"><title>(3.03955,128)</title></rect><rect x="462" y="199.946" width="6" height="0.0535524" stroke="black" stroke-width="1" fill="blue" tooltip="enable"><title>(3.07954,139)</title></rect><rect x="468" y="199.96" width="6" height="0.0404532" stroke="black" stroke-width="1" fill="blue" tooltip="enable"><title>(3.11953,105)</title></rect><rect x="474" y="199.946" width="6" height="0.0539376" stroke="black" stroke-width="1" fill="blue" tooltip="enable"><title>(3.15953,140)</title></rect><rect x="480" y="199.96" width="6" height="0.0404532" stroke="black" stroke-width="1" fill="blue" tooltip="enable"><title>(3.19952,105)</title></rect><rect x="486" y="199.959" width="6" height="0.0412238" stroke="black" stroke-width="1" fill="blue" tooltip="enable"><title>(3.23952,107)</title></rect><rect x="492" y="199.958" width="6" height="0.041609" stroke="black" stroke-width="1" fill="blue" tooltip="enable"><title>(3.27951,108)</title></rect><rect x="498" y="199.964" width="6" height="0.0362153" stroke="black" stroke-width="1" fill="blue" tooltip="enable"><title>(3.3195,94)</title></rect><rect x="504" y="199.966" width="6" height="0.0339037" stroke="black" stroke-width="1" fill="blue" tooltip="enable"><title>(3.3595,88)</title></rect><rect x="510" y="199.968" width="6" height="0.031592" stroke="black" stroke-width="1" fill="blue" tooltip="enable"><title>(3.39949,82)</title></rect><rect x="516" y="199.974" width="6" height="0.025813" stroke="black" stroke-width="1" fill="blue" tooltip="enable"><title>(3.43949,67)</title></rect><rect x="522" y="199.976" width="6" height="0.0242719" stroke="black" stroke-width="1" fill="blue" tooltip="enable"><title>(3.47948,63)</title></rect><rect x="528" y="199.978" width="6" height="0.0215751" stroke="black" stroke-width="1" fill="blue" tooltip="enable"><title>(3.51947,56)</title></rect><rect x="534" y="199.985" width="6" height="0.0150255" stroke="black" stroke-width="1" fill="blue" tooltip="enable"><title>(3.55947,39)</title></rect><rect x="540" y="199.984" width="6" height="0.015796" stroke="black" stroke-width="1" fill="blue" tooltip="enable"><title>(3.59946,41)</title></rect><rect x="546" y="199.983" width="6" height="0.0165666" stroke="black" stroke-width="1" fill="blue" tooltip="enable"><title>(3.63946,43)</title></rect><rect x="552" y="199.985" width="6" height="0.0146402" stroke="black" stroke-width="1" fill="blue" tooltip="enable"><title>(3.67945,38)</title></rect><rect x="558" y="199.983" width="6" height="0.0165666" stroke="black" stroke-width="1" fill="blue" tooltip="enable"><title>(3.71944,43)</title></rect><rect x="564" y="199.987" width="6" height="0.0127139" stroke="black" stroke-width="1" fill="blue" tooltip="enable"><title>(3.75944,33)</title></rect><rect x="570" y="199.988" width="6" height="0.0123286" stroke="black" stroke-width="1" fill="blue" tooltip="enable"><title>(3.79943,32)</title></rect><rect x="576" y="199.992" width="6" height="0.00770538" stroke="black" stroke-width="1" fill="blue" tooltip="enable"><title>(3.83943,20)</title></rect><rect x="582" y="199.989" width="6" height="0.0111728" stroke="black" stroke-width="1" fill="blue" tooltip="enable"><title>(3.87942,29)</title></rect><rect x="588" y="199.994" width="6" height="0.0061643" stroke="black" stroke-width="1" fill="blue" tooltip="enable"><title>(3.91941,16)</title></rect><rect x="594" y="199.997" width="6" height="0.00346742" stroke="black" stroke-width="1" fill="blue" tooltip="enable"><title>(3.95941,9)</title></rect><text x="30" y="240" font-size="20" fill="black">0</text>
<text x="600" y="240" font-size="20" fill="black">3.9994</text>
<polyline points="0,220,600,220" stroke="black" stroke-width="1" fill="none"/>
<text x="720" y="20" font-size="20" fill="black">519118</text>
<text x="720" y="200" font-size="20" fill="black">0</text>
<polyline points="660,0,660,200" stroke="black" stroke-width="1" fill="none"/>
</svg>