<?xml version="1.0" standalone="yes"?>
<!-- SVG graphic -->
<svg xmlns='http://www.w3.org/2000/svg' xmlns:xlink='http://www.w3.org/1999/xlink'
width="295px" height="295px" preserveAspectRatio="xMinYMin meet" viewBox="0 0 295 295" version="1.1">
<rect x="5" y="0" width="2.5" height="2.5" fill="blue"/>
<rect x="10" y="0" width="2.5" height="2.5" fill="blue"/>
<rect x="15" y="0" width="2.5" height="2.5" fill="blue"/>
<rect x="25" y="0" width="2.5" height="2.5" fill="blue"/>
<rect x="65" y="0" width="2.5" height="2.5" fill="blue"/>
<rect x="100" y="0" width="2.5" height="2.5" fill="blue"/>
<rect x="225" y="0" width="2.5" height="2.5" fill="blue"/>
<rect x="10" y="5" width="2.5" height="2.5" fill="blue"/>
<rect x="15" y="5" width="2.5" height="2.5" fill="blue"/>
<rect x="20" y="5" width="2.5" height="2.5" fill="blue"/>
<rect x="25" y="5" width="2.5" height="2.5" fill="blue"/>
<rect x="30" y="5" width="2.5" height="2.5" fill="blue"/>
<rect x="35" y="5" width="2.5" height="2.5" fill="blue"/>
<rect x="40" y="5" width="2.5" height="2.5" fill="blue"/>
<rect x="55" y="5" width="2.5" height="2.5" fill="blue"/>
<rect x="65" y="5" width="2.5" height="2.5" fill="blue"/>
<rect x="75" y="5" width="2.5" height="2.5" fill="blue"/>
<rect x="85" y="5" width="2.5" height="2.5" fill="blue"/>
<rect x="95" y="5" width="2.5" height="2.5" fill="blue"/>
<rect x="130" y="5" width="2.5" height="2.5" fill="blue"/>
<rect x="140" y="5" width="2.5" height="2.5" fill="blue"/>
<rect x="155" y="5" width="2.5" height="2.5" fill="blue"/>
<rect x="170" y="5" width="2.5" height="2.5" fill="blue"/>
<rect x="225" y="5" width="2.5" height="2.5" fill="blue"/>
<rect x="260" y="5" width="2.5" height="2.5" fill="blue"/>
<rect x="265" y="5" width="2.5" height="2.5" fill="blue"/>
<rect x="15" y="10" width="2.5" height="2.5" fill="blue"/>
<rect x="20" y="10" width="2.5" height="2.5" fill="blue"/>
<rect x="25" y="10" width="2.5" height="2.5" fill="blue"/>
<rect x="30" y="10" width="2.5" height="2.5" fill="blue"/>
<rect x="35" y="10" width="2.5" height="2.5" fill="blue"/>
<rect x="40" y="10" width="2.5" height="2.5" fill="blue"/>
<rect x="50" y="10" width="2.5" height="2.5" fill="blue"/>
<rect x="65" y="10" width="2.5" height="2.5" fill="blue"/>
<rect x="75" y="10" width="2.5" height="2.5" fill="blue"/>
<rect x="80" y="10" width="2.5" height="2.5" fill="blue"/>
<rect x="85" y="10" width="2.5" height="2.5" fill="blue"/>
<rect x="95" y="10" width="2.5" height="2.5" fill="blue"/>
<rect x="130" y="10" width="2.5" height="2.5" fill="blue"/>
<rect x="135" y="10" width="2.5" height="2.5" fill="blue"/>
<rect x="140" y="10" width="2.5" height="2.5" fill="blue"/>
<rect x="195" y="10" width="2.5" height="2.5" fill="blue"/>
<rect x="220" y="10" width="2.5" height="2.5" fill="blue"/>
<rect x="225" y="10" width="2.5" height="2.5" fill="blue"/>
<rect x="265" y="10" width="2.5" height="2.5" fill="blue"/>
<rect x="270" y="10" width="2.5" height="2.5" fill="blue"/>
<rect x="20" y="15" width="2.5" height="2.5" fill="blue"/>
<rect x="25" y="15" width="2.5" height="2.5" fill="blue"/>
<rect x="30" y="15" width="2.5" height="2.5" fill="blue"/>
<rect x="35" y="15" width="2.5" height="2.5" fill="blue"/>
<rect x="40" y="15" width="2.5" height="2.5" fill="blue"/>
<rect x="45" y="15" width="2.5" height="2.5" fill="blue"/>
<rect x="50" y="15" width="2.5" height="2.5" fill="blue"/>
<rect x="55" y="15" width="2.5" height="2.5" fill="blue"/>
<rect x="75" y="15" width="2.5" height="2.5" fill="blue"/>
<rect x="80" y="15" width="2.5" height="2.5" fill="blue"/>
<rect x="260" y="15" width="2.5" height="2.5" fill="blue"/>
<rect x="25" y="20" width="2.5" height="2.5" fill="blue"/>
<rect x="30" y="20" width="2.5" height="2.5" fill="blue"/>
<rect x="35" y="20" width="2.5" height="2.5" fill="blue"/>
<rect x="40" y="20" width="2.5" height="2.5" fill="blue"/>
<rect x="55" y="20" width="2.5" height="2.5" fill="blue"/>
<rect x="60" y="20" width="2.5" height="2.5" fill="blue"/>
<rect x="65" y="20" width="2.5" height="2.5" fill="blue"/>
<rect x="70" y="20" width="2.5" height="2.5" fill="blue"/>
<rect x="75" y="20" width="2.5" height="2.5" fill="blue"/>
<rect x="85" y="20" width="2.5" height="2.5" fill="blue"/>
<rect x="130" y="20" width="2.5" height="2.5" fill="blue"/>
<rect x="135" y="20" width="2.5" height="2.5" fill="blue"/>
<rect x="140" y="20" width="2.5" height="2.5" fill="blue"/>
<rect x="165" y="20" width="2.5" height="2.5" fill="blue"/>
<rect x="170" y="20" width="2.5" height="2.5" fill="blue"/>
<rect x="190" y="20" width="2.5" height="2.5" fill="blue"/>
<rect x="200" y="20" width="2.5" height="2.5" fill="blue"/>
<rect x="210" y="20" width="2.5" height="2.5" fill="blue"/>
<rect x="230" y="20" width="2.5" height="2.5" fill="blue"/>
<rect x="260" y="20" width="2.5" height="2.5" fill="blue"/>
<rect x="265" y="20" width="2.5" height="2.5" fill="blue"/>
<rect x="270" y="20" width="2.5" height="2.5" fill="blue"/>
<rect x="30" y="25" width="2.5" height="2.5" fill="blue"/>
<rect x="35" y="25" width="2.5" height="2.5" fill="blue"/>
<rect x="40" y="25" width="2.5" height="2.5" fill="blue"/>
<rect x="45" y="25" width="2.5" height="2.5" fill="blue"/>
<rect x="55" y="25" width="2.5" height="2.5" fill="blue"/>
<rect x="60" y="25" width="2.5" height="2.5" fill="blue"/>
<rect x="65" y="25" width="2.5" height="2.5" fill="blue"/>
<rect x="70" y="25" width="2.5" height="2.5" fill="blue"/>
<rect x="75" y="25" width="2.5" height="2.5" fill="blue"/>
<rect x="85" y="25" width="2.5" height="2.5" fill="blue"/>
<rect x="90" y="25" width="2.5" height="2.5" fill="blue"/>
<rect x="130" y="25" width="2.5" height="2.5" fill="blue"/>
<rect x="135" y="25" width="2.5" height="2.5" fill="blue"/>
<rect x="140" y="25" width="2.5" height="2.5" fill="blue"/>
<rect x="155" y="25" width="2.5" height="2.5" fill="blue"/>
<rect x="180" y="25" width="2.5" height="2.5" fill="blue"/>
<rect x="205" y="25" width="2.5" height="2.5" fill="blue"/>
<rect x="210" y="25" width="2.5" height="2.5" fill="blue"/>
<rect x="220" y="25" width="2.5" height="2.5" fill="blue"/>
<rect x="240" y="25" width="2.5" height="2.5" fill="blue"/>
<rect x="245" y="25" width="2.5" height="2.5" fill="blue"/>
<rect x="260" y="25" width="2.5" height="2.5" fill="blue"/>
<rect x="265" y="25" width="2.5" height="2.5" fill="blue"/>
<rect x="270" y="25" width="2.5" height="2.5" fill="blue"/>
<rect x="35" y="30" width="2.5" height="2.5" fill="blue"/>
<rect x="40" y="30" width="2.5" height="2.5" fill="blue"/>
<rect x="45" y="30" width="2.5" height="2.5" fill="blue"/>
<rect x="55" y="30" width="2.5" height="2.5" fill="blue"/>
<rect x="60" y="30" width="2.5" height="2.5" fill="blue"/>
<rect x="65" y="30" width="2.5" height="2.5" fill="blue"/>
<rect x="70" y="30" width="2.5" height="2.5" fill="blue"/>
<rect x="75" y="30" width="2.5" height="2.5" fill="blue"/>
<rect x="80" y="30" width="2.5" height="2.5" fill="blue"/>
<rect x="85" y="30" width="2.5" height="2.5" fill="blue"/>
<rect x="90" y="30" width="2.5" height="2.5" fill="blue"/>
<rect x="95" y="30" width="2.5" height="2.5" fill="blue"/>
<rect x="130" y="30" width="2.5" height="2.5" fill="blue"/>
<rect x="135" y="30" width="2.5" height="2.5" fill="blue"/>
<rect x="140" y="30" width="2.5" height="2.5" fill="blue"/>
<rect x="175" y="30" width="2.5" height="2.5" fill="blue"/>
<rect x="180" y="30" width="2.5" height="2.5" fill="blue"/>
<rect x="190" y="30" width="2.5" height="2.5" fill="blue"/>
<rect x="200" y="30" width="2.5" height="2.5" fill="blue"/>
<rect x="205" y="30" width="2.5" height="2.5" fill="blue"/>
<rect x="215" y="30" width="2.5" height="2.5" fill="blue"/>
<rect x="220" y="30" width="2.5" height="2.5" fill="blue"/>
<rect x="230" y="30" width="2.5" height="2.5" fill="blue"/>
<rect x="235" y="30" width="2.5" height="2.5" fill="blue"/>
<rect x="260" y="30" width="2.5" height="2.5" fill="blue"/>
<rect x="265" y="30" width="2.5" height="2.5" fill="blue"/>
<rect x="270" y="30" width="2.5" height="2.5" fill="blue"/>
<rect x="275" y="30" width="2.5" height="2.5" fill="blue"/>
<rect x="40" y="35" width="2.5" height="2.5" fill="blue"/>
<rect x="45" y="35" width="2.5" height="2.5" fill="blue"/>
<rect x="50" y="35" width="2.5" height="2.5" fill="blue"/>
<rect x="60" y="35" width="2.5" height="2.5" fill="blue"/>
<rect x="65" y="35" width="2.5" height="2.5" fill="blue"/>
<rect x="70" y="35" width="2.5" height="2.5" fill="blue"/>
<rect x="75" y="35" width="2.5" height="2.5" fill="blue"/>
<rect x="80" y="35" width="2.5" height="2.5" fill="blue"/>
<rect x="85" y="35" width="2.5" height="2.5" fill="blue"/>
<rect x="90" y="35" width="2.5" height="2.5" fill="blue"/>
<rect x="95" y="35" width="2.5" height="2.5" fill="blue"/>
<rect x="110" y="35" width="2.5" height="2.5" fill="blue"/>
<rect x="130" y="35" width="2.5" height="2.5" fill="blue"/>
<rect x="135" y="35" width="2.5" height="2.5" fill="blue"/>
<rect x="140" y="35" width="2.5" height="2.5" fill="blue"/>
<rect x="145" y="35" width="2.5" height="2.5" fill="blue"/>
<rect x="155" y="35" width="2.5" height="2.5" fill="blue"/>
<rect x="160" y="35" width="2.5" height="2.5" fill="blue"/>
<rect x="170" y="35" width="2.5" height="2.5" fill="blue"/>
<rect x="175" y="35" width="2.5" height="2.5" fill="blue"/>
<rect x="185" y="35" width="2.5" height="2.5" fill="blue"/>
<rect x="215" y="35" width="2.5" height="2.5" fill="blue"/>
<rect x="245" y="35" width="2.5" height="2.5" fill="blue"/>
<rect x="260" y="35" width="2.5" height="2.5" fill="blue"/>
<rect x="265" y="35" width="2.5" height="2.5" fill="blue"/>
<rect x="270" y="35" width="2.5" height="2.5" fill="blue"/>
<rect x="45" y="40" width="2.5" height="2.5" fill="blue"/>
<rect x="50" y="40" width="2.5" height="2.5" fill="blue"/>
<rect x="55" y="40" width="2.5" height="2.5" fill="blue"/>
<rect x="60" y="40" width="2.5" height="2.5" fill="blue"/>
<rect x="65" y="40" width="2.5" height="2.5" fill="blue"/>
<rect x="70" y="40" width="2.5" height="2.5" fill="blue"/>
<rect x="75" y="40" width="2.5" height="2.5" fill="blue"/>
<rect x="80" y="40" width="2.5" height="2.5" fill="blue"/>
<rect x="85" y="40" width="2.5" height="2.5" fill="blue"/>
<rect x="140" y="40" width="2.5" height="2.5" fill="blue"/>
<rect x="145" y="40" width="2.5" height="2.5" fill="blue"/>
<rect x="160" y="40" width="2.5" height="2.5" fill="blue"/>
<rect x="165" y="40" width="2.5" height="2.5" fill="blue"/>
<rect x="175" y="40" width="2.5" height="2.5" fill="blue"/>
<rect x="190" y="40" width="2.5" height="2.5" fill="blue"/>
<rect x="200" y="40" width="2.5" height="2.5" fill="blue"/>
<rect x="205" y="40" width="2.5" height="2.5" fill="blue"/>
<rect x="210" y="40" width="2.5" height="2.5" fill="blue"/>
<rect x="215" y="40" width="2.5" height="2.5" fill="blue"/>
<rect x="220" y="40" width="2.5" height="2.5" fill="blue"/>
<rect x="230" y="40" width="2.5" height="2.5" fill="blue"/>
<rect x="235" y="40" width="2.5" height="2.5" fill="blue"/>
<rect x="240" y="40" width="2.5" height="2.5" fill="blue"/>
<rect x="260" y="40" width="2.5" height="2.5" fill="blue"/>
<rect x="265" y="40" width="2.5" height="2.5" fill="blue"/>
<rect x="270" y="40" width="2.5" height="2.5" fill="blue"/>
<rect x="50" y="45" width="2.5" height="2.5" fill="blue"/>
<rect x="55" y="45" width="2.5" height="2.5" fill="blue"/>
<rect x="60" y="45" width="2.5" height="2.5" fill="blue"/>
<rect x="65" y="45" width="2.5" height="2.5" fill="blue"/>
<rect x="70" y="45" width="2.5" height="2.5" fill="blue"/>
<rect x="75" y="45" width="2.5" height="2.5" fill="blue"/>
<rect x="80" y="45" width="2.5" height="2.5" fill="blue"/>
<rect x="85" y="45" width="2.5" height="2.5" fill="blue"/>
<rect x="90" y="45" width="2.5" height="2.5" fill="blue"/>
<rect x="95" y="45" width="2.5" height="2.5" fill="blue"/>
<rect x="100" y="45" width="2.5" height="2.5" fill="blue"/>
<rect x="105" y="45" width="2.5" height="2.5" fill="blue"/>
<rect x="130" y="45" width="2.5" height="2.5" fill="blue"/>
<rect x="135" y="45" width="2.5" height="2.5" fill="blue"/>
<rect x="140" y="45" width="2.5" height="2.5" fill="blue"/>
<rect x="145" y="45" width="2.5" height="2.5" fill="blue"/>
<rect x="160" y="45" width="2.5" height="2.5" fill="blue"/>
<rect x="175" y="45" width="2.5" height="2.5" fill="blue"/>
<rect x="215" y="45" width="2.5" height="2.5" fill="blue"/>
<rect x="230" y="45" width="2.5" height="2.5" fill="blue"/>
<rect x="245" y="45" width="2.5" height="2.5" fill="blue"/>
<rect x="250" y="45" width="2.5" height="2.5" fill="blue"/>
<rect x="260" y="45" width="2.5" height="2.5" fill="blue"/>
<rect x="265" y="45" width="2.5" height="2.5" fill="blue"/>
<rect x="270" y="45" width="2.5" height="2.5" fill="blue"/>
<rect x="275" y="45" width="2.5" height="2.5" fill="blue"/>
<rect x="55" y="50" width="2.5" height="2.5" fill="blue"/>
<rect x="60" y="50" width="2.5" height="2.5" fill="blue"/>
<rect x="65" y="50" width="2.5" height="2.5" fill="blue"/>
<rect x="70" y="50" width="2.5" height="2.5" fill="blue"/>
<rect x="75" y="50" width="2.5" height="2.5" fill="blue"/>
<rect x="80" y="50" width="2.5" height="2.5" fill="blue"/>
<rect x="85" y="50" width="2.5" height="2.5" fill="blue"/>
<rect x="90" y="50" width="2.5" height="2.5" fill="blue"/>
<rect x="95" y="50" width="2.5" height="2.5" fill="blue"/>
<rect x="105" y="50" width="2.5" height="2.5" fill="blue"/>
<rect x="130" y="50" width="2.5" height="2.5" fill="blue"/>
<rect x="135" y="50" width="2.5" height="2.5" fill="blue"/>
<rect x="140" y="50" width="2.5" height="2.5" fill="blue"/>
<rect x="145" y="50" width="2.5" height="2.5" fill="blue"/>
<rect x="175" y="50" width="2.5" height="2.5" fill="blue"/>
<rect x="200" y="50" width="2.5" height="2.5" fill="blue"/>
<rect x="230" y="50" width="2.5" height="2.5" fill="blue"/>
<rect x="245" y="50" width="2.5" height="2.5" fill="blue"/>
<rect x="250" y="50" width="2.5" height="2.5" fill="blue"/>
<rect x="260" y="50" width="2.5" height="2.5" fill="blue"/>
<rect x="265" y="50" width="2.5" height="2.5" fill="blue"/>
<rect x="270" y="50" width="2.5" height="2.5" fill="blue"/>
<rect x="275" y="50" width="2.5" height="2.5" fill="blue"/>
<rect x="60" y="55" width="2.5" height="2.5" fill="blue"/>
<rect x="65" y="55" width="2.5" height="2.5" fill="blue"/>
<rect x="75" y="55" width="2.5" height="2.5" fill="blue"/>
<rect x="80" y="55" width="2.5" height="2.5" fill="blue"/>
<rect x="85" y="55" width="2.5" height="2.5" fill="blue"/>
<rect x="90" y="55" width="2.5" height="2.5" fill="blue"/>
<rect x="95" y="55" width="2.5" height="2.5" fill="blue"/>
<rect x="100" y="55" width="2.5" height="2.5" fill="blue"/>
<rect x="110" y="55" width="2.5" height="2.5" fill="blue"/>
<rect x="130" y="55" width="2.5" height="2.5" fill="blue"/>
<rect x="135" y="55" width="2.5" height="2.5" fill="blue"/>
<rect x="140" y="55" width="2.5" height="2.5" fill="blue"/>
<rect x="165" y="55" width="2.5" height="2.5" fill="blue"/>
<rect x="175" y="55" width="2.5" height="2.5" fill="blue"/>
<rect x="190" y="55" width="2.5" height="2.5" fill="blue"/>
<rect x="205" y="55" width="2.5" height="2.5" fill="blue"/>
<rect x="235" y="55" width="2.5" height="2.5" fill="blue"/>
<rect x="240" y="55" width="2.5" height="2.5" fill="blue"/>
<rect x="260" y="55" width="2.5" height="2.5" fill="blue"/>
<rect x="265" y="55" width="2.5" height="2.5" fill="blue"/>
<rect x="270" y="55" width="2.5" height="2.5" fill="blue"/>
<rect x="275" y="55" width="2.5" height="2.5" fill="blue"/>
<rect x="65" y="60" width="2.5" height="2.5" fill="blue"/>
<rect x="70" y="60" width="2.5" height="2.5" fill="blue"/>
<rect x="75" y="60" width="2.5" height="2.5" fill="blue"/>
<rect x="80" y="60" width="2.5" height="2.5" fill="blue"/>
<rect x="85" y="60" width="2.5" height="2.5" fill="blue"/>
<rect x="95" y="60" width="2.5" height="2.5" fill="blue"/>
<rect x="100" y="60" width="2.5" height="2.5" fill="blue"/>
<rect x="135" y="60" width="2.5" height="2.5" fill="blue"/>
<rect x="140" y="60" width="2.5" height="2.5" fill="blue"/>
<rect x="145" y="60" width="2.5" height="2.5" fill="blue"/>
<rect x="160" y="60" width="2.5" height="2.5" fill="blue"/>
<rect x="175" y="60" width="2.5" height="2.5" fill="blue"/>
<rect x="180" y="60" width="2.5" height="2.5" fill="blue"/>
<rect x="205" y="60" width="2.5" height="2.5" fill="blue"/>
<rect x="215" y="60" width="2.5" height="2.5" fill="blue"/>
<rect x="250" y="60" width="2.5" height="2.5" fill="blue"/>
<rect x="260" y="60" width="2.5" height="2.5" fill="blue"/>
<rect x="265" y="60" width="2.5" height="2.5" fill="blue"/>
<rect x="270" y="60" width="2.5" height="2.5" fill="blue"/>
<rect x="275" y="60" width="2.5" height="2.5" fill="blue"/>
<rect x="70" y="65" width="2.5" height="2.5" fill="blue"/>
<rect x="75" y="65" width="2.5" height="2.5" fill="blue"/>
<rect x="80" y="65" width="2.5" height="2.5" fill="blue"/>
<rect x="85" y="65" width="2.5" height="2.5" fill="blue"/>
<rect x="95" y="65" width="2.5" height="2.5" fill="blue"/>
<rect x="145" y="65" width="2.5" height="2.5" fill="blue"/>
<rect x="175" y="65" width="2.5" height="2.5" fill="blue"/>
<rect x="180" y="65" width="2.5" height="2.5" fill="blue"/>
<rect x="200" y="65" width="2.5" height="2.5" fill="blue"/>
<rect x="215" y="65" width="2.5" height="2.5" fill="blue"/>
<rect x="230" y="65" width="2.5" height="2.5" fill="blue"/>
<rect x="235" y="65" width="2.5" height="2.5" fill="blue"/>
<rect x="250" y="65" width="2.5" height="2.5" fill="blue"/>
<rect x="270" y="65" width="2.5" height="2.5" fill="blue"/>
<rect x="75" y="70" width="2.5" height="2.5" fill="blue"/>
<rect x="80" y="70" width="2.5" height="2.5" fill="blue"/>
<rect x="95" y="70" width="2.5" height="2.5" fill="blue"/>
<rect x="130" y="70" width="2.5" height="2.5" fill="blue"/>
<rect x="145" y="70" width="2.5" height="2.5" fill="blue"/>
<rect x="160" y="70" width="2.5" height="2.5" fill="blue"/>
<rect x="175" y="70" width="2.5" height="2.5" fill="blue"/>
<rect x="180" y="70" width="2.5" height="2.5" fill="blue"/>
<rect x="200" y="70" width="2.5" height="2.5" fill="blue"/>
<rect x="215" y="70" width="2.5" height="2.5" fill="blue"/>
<rect x="260" y="70" width="2.5" height="2.5" fill="blue"/>
<rect x="270" y="70" width="2.5" height="2.5" fill="blue"/>
<rect x="275" y="70" width="2.5" height="2.5" fill="blue"/>
<rect x="80" y="75" width="2.5" height="2.5" fill="blue"/>
<rect x="85" y="75" width="2.5" height="2.5" fill="blue"/>
<rect x="95" y="75" width="2.5" height="2.5" fill="blue"/>
<rect x="105" y="75" width="2.5" height="2.5" fill="blue"/>
<rect x="130" y="75" width="2.5" height="2.5" fill="blue"/>
<rect x="135" y="75" width="2.5" height="2.5" fill="blue"/>
<rect x="145" y="75" width="2.5" height="2.5" fill="blue"/>
<rect x="160" y="75" width="2.5" height="2.5" fill="blue"/>
<rect x="175" y="75" width="2.5" height="2.5" fill="blue"/>
<rect x="180" y="75" width="2.5" height="2.5" fill="blue"/>
<rect x="190" y="75" width="2.5" height="2.5" fill="blue"/>
<rect x="200" y="75" width="2.5" height="2.5" fill="blue"/>
<rect x="205" y="75" width="2.5" height="2.5" fill="blue"/>
<rect x="210" y="75" width="2.5" height="2.5" fill="blue"/>
<rect x="215" y="75" width="2.5" height="2.5" fill="blue"/>
<rect x="230" y="75" width="2.5" height="2.5" fill="blue"/>
<rect x="235" y="75" width="2.5" height="2.5" fill="blue"/>
<rect x="240" y="75" width="2.5" height="2.5" fill="blue"/>
<rect x="260" y="75" width="2.5" height="2.5" fill="blue"/>
<rect x="265" y="75" width="2.5" height="2.5" fill="blue"/>
<rect x="270" y="75" width="2.5" height="2.5" fill="blue"/>
<rect x="275" y="75" width="2.5" height="2.5" fill="blue"/>
<rect x="85" y="80" width="2.5" height="2.5" fill="blue"/>
<rect x="90" y="80" width="2.5" height="2.5" fill="blue"/>
<rect x="95" y="80" width="2.5" height="2.5" fill="blue"/>
<rect x="100" y="80" width="2.5" height="2.5" fill="blue"/>
<rect x="105" y="80" width="2.5" height="2.5" fill="blue"/>
<rect x="110" y="80" width="2.5" height="2.5" fill="blue"/>
<rect x="130" y="80" width="2.5" height="2.5" fill="blue"/>
<rect x="135" y="80" width="2.5" height="2.5" fill="blue"/>
<rect x="140" y="80" width="2.5" height="2.5" fill="blue"/>
<rect x="145" y="80" width="2.5" height="2.5" fill="blue"/>
<rect x="160" y="80" width="2.5" height="2.5" fill="blue"/>
<rect x="165" y="80" width="2.5" height="2.5" fill="blue"/>
<rect x="180" y="80" width="2.5" height="2.5" fill="blue"/>
<rect x="215" y="80" width="2.5" height="2.5" fill="blue"/>
<rect x="230" y="80" width="2.5" height="2.5" fill="blue"/>
<rect x="235" y="80" width="2.5" height="2.5" fill="blue"/>
<rect x="245" y="80" width="2.5" height="2.5" fill="blue"/>
<rect x="250" y="80" width="2.5" height="2.5" fill="blue"/>
<rect x="260" y="80" width="2.5" height="2.5" fill="blue"/>
<rect x="265" y="80" width="2.5" height="2.5" fill="blue"/>
<rect x="270" y="80" width="2.5" height="2.5" fill="blue"/>
<rect x="275" y="80" width="2.5" height="2.5" fill="blue"/>
<rect x="90" y="85" width="2.5" height="2.5" fill="blue"/>
<rect x="95" y="85" width="2.5" height="2.5" fill="blue"/>
<rect x="100" y="85" width="2.5" height="2.5" fill="blue"/>
<rect x="110" y="85" width="2.5" height="2.5" fill="blue"/>
<rect x="130" y="85" width="2.5" height="2.5" fill="blue"/>
<rect x="135" y="85" width="2.5" height="2.5" fill="blue"/>
<rect x="140" y="85" width="2.5" height="2.5" fill="blue"/>
<rect x="150" y="85" width="2.5" height="2.5" fill="blue"/>
<rect x="165" y="85" width="2.5" height="2.5" fill="blue"/>
<rect x="190" y="85" width="2.5" height="2.5" fill="blue"/>
<rect x="210" y="85" width="2.5" height="2.5" fill="blue"/>
<rect x="235" y="85" width="2.5" height="2.5" fill="blue"/>
<rect x="255" y="85" width="2.5" height="2.5" fill="blue"/>
<rect x="260" y="85" width="2.5" height="2.5" fill="blue"/>
<rect x="265" y="85" width="2.5" height="2.5" fill="blue"/>
<rect x="270" y="85" width="2.5" height="2.5" fill="blue"/>
<rect x="275" y="85" width="2.5" height="2.5" fill="blue"/>
<rect x="95" y="90" width="2.5" height="2.5" fill="blue"/>
<rect x="100" y="90" width="2.5" height="2.5" fill="blue"/>
<rect x="105" y="90" width="2.5" height="2.5" fill="blue"/>
<rect x="110" y="90" width="2.5" height="2.5" fill="blue"/>
<rect x="130" y="90" width="2.5" height="2.5" fill="blue"/>
<rect x="135" y="90" width="2.5" height="2.5" fill="blue"/>
<rect x="140" y="90" width="2.5" height="2.5" fill="blue"/>
<rect x="150" y="90" width="2.5" height="2.5" fill="blue"/>
<rect x="165" y="90" width="2.5" height="2.5" fill="blue"/>
<rect x="190" y="90" width="2.5" height="2.5" fill="blue"/>
<rect x="235" y="90" width="2.5" height="2.5" fill="blue"/>
<rect x="255" y="90" width="2.5" height="2.5" fill="blue"/>
<rect x="260" y="90" width="2.5" height="2.5" fill="blue"/>
<rect x="270" y="90" width="2.5" height="2.5" fill="blue"/>
<rect x="100" y="95" width="2.5" height="2.5" fill="blue"/>
<rect x="105" y="95" width="2.5" height="2.5" fill="blue"/>
<rect x="110" y="95" width="2.5" height="2.5" fill="blue"/>
<rect x="130" y="95" width="2.5" height="2.5" fill="blue"/>
<rect x="135" y="95" width="2.5" height="2.5" fill="blue"/>
<rect x="140" y="95" width="2.5" height="2.5" fill="blue"/>
<rect x="165" y="95" width="2.5" height="2.5" fill="blue"/>
<rect x="210" y="95" width="2.5" height="2.5" fill="blue"/>
<rect x="260" y="95" width="2.5" height="2.5" fill="blue"/>
<rect x="265" y="95" width="2.5" height="2.5" fill="blue"/>
<rect x="270" y="95" width="2.5" height="2.5" fill="blue"/>
<rect x="105" y="100" width="2.5" height="2.5" fill="blue"/>
<rect x="110" y="100" width="2.5" height="2.5" fill="blue"/>
<rect x="130" y="100" width="2.5" height="2.5" fill="blue"/>
<rect x="135" y="100" width="2.5" height="2.5" fill="blue"/>
<rect x="140" y="100" width="2.5" height="2.5" fill="blue"/>
<rect x="150" y="100" width="2.5" height="2.5" fill="blue"/>
<rect x="165" y="100" width="2.5" height="2.5" fill="blue"/>
<rect x="190" y="100" width="2.5" height="2.5" fill="blue"/>
<rect x="235" y="100" width="2.5" height="2.5" fill="blue"/>
<rect x="240" y="100" width="2.5" height="2.5" fill="blue"/>
<rect x="270" y="100" width="2.5" height="2.5" fill="blue"/>
<rect x="110" y="105" width="2.5" height="2.5" fill="blue"/>
<rect x="115" y="105" width="2.5" height="2.5" fill="blue"/>
<rect x="130" y="105" width="2.5" height="2.5" fill="blue"/>
<rect x="120" y="110" width="2.5" height="2.5" fill="blue"/>
<rect x="140" y="110" width="2.5" height="2.5" fill="blue"/>
<rect x="260" y="110" width="2.5" height="2.5" fill="blue"/>
<rect x="265" y="110" width="2.5" height="2.5" fill="blue"/>
<rect x="270" y="110" width="2.5" height="2.5" fill="blue"/>
<rect x="120" y="115" width="2.5" height="2.5" fill="blue"/>
<rect x="135" y="130" width="2.5" height="2.5" fill="blue"/>
<rect x="140" y="130" width="2.5" height="2.5" fill="blue"/>
<rect x="150" y="130" width="2.5" height="2.5" fill="blue"/>
<rect x="260" y="130" width="2.5" height="2.5" fill="blue"/>
<rect x="265" y="130" width="2.5" height="2.5" fill="blue"/>
<rect x="270" y="130" width="2.5" height="2.5" fill="blue"/>
<rect x="140" y="135" width="2.5" height="2.5" fill="blue"/>
<rect x="150" y="135" width="2.5" height="2.5" fill="blue"/>
<rect x="245" y="135" width="2.5" height="2.5" fill="blue"/>
<rect x="260" y="135" width="2.5" height="2.5" fill="blue"/>
<rect x="265" y="135" width="2.5" height="2.5" fill="blue"/>
<rect x="270" y="135" width="2.5" height="2.5" fill="blue"/>
<rect x="145" y="140" width="2.5" height="2.5" fill="blue"/>
<rect x="155" y="140" width="2.5" height="2.5" fill="blue"/>
<rect x="180" y="140" width="2.5" height="2.5" fill="blue"/>
<rect x="260" y="140" width="2.5" height="2.5" fill="blue"/>
<rect x="265" y="140" width="2.5" height="2.5" fill="blue"/>
<rect x="270" y="140" width="2.5" height="2.5" fill="blue"/>
<rect x="160" y="145" width="2.5" height="2.5" fill="blue"/>
<rect x="175" y="145" width="2.5" height="2.5" fill="blue"/>
<rect x="180" y="145" width="2.5" height="2.5" fill="blue"/>
<rect x="200" y="145" width="2.5" height="2.5" fill="blue"/>
<rect x="215" y="145" width="2.5" height="2.5" fill="blue"/>
<rect x="220" y="145" width="2.5" height="2.5" fill="blue"/>
<rect x="245" y="145" width="2.5" height="2.5" fill="blue"/>
<rect x="250" y="145" width="2.5" height="2.5" fill="blue"/>
<rect x="260" y="145" width="2.5" height="2.5" fill="blue"/>
<rect x="265" y="145" width="2.5" height="2.5" fill="blue"/>
<rect x="270" y="145" width="2.5" height="2.5" fill="blue"/>
<rect x="275" y="145" width="2.5" height="2.5" fill="blue"/>
<rect x="165" y="150" width="2.5" height="2.5" fill="blue"/>
<rect x="190" y="150" width="2.5" height="2.5" fill="blue"/>
<rect x="205" y="150" width="2.5" height="2.5" fill="blue"/>
<rect x="210" y="150" width="2.5" height="2.5" fill="blue"/>
<rect x="240" y="150" width="2.5" height="2.5" fill="blue"/>
<rect x="255" y="150" width="2.5" height="2.5" fill="blue"/>
<rect x="260" y="150" width="2.5" height="2.5" fill="blue"/>
<rect x="170" y="155" width="2.5" height="2.5" fill="blue"/>
<rect x="185" y="155" width="2.5" height="2.5" fill="blue"/>
<rect x="195" y="155" width="2.5" height="2.5" fill="blue"/>
<rect x="175" y="160" width="2.5" height="2.5" fill="blue"/>
<rect x="180" y="160" width="2.5" height="2.5" fill="blue"/>
<rect x="200" y="160" width="2.5" height="2.5" fill="blue"/>
<rect x="215" y="160" width="2.5" height="2.5" fill="blue"/>
<rect x="220" y="160" width="2.5" height="2.5" fill="blue"/>
<rect x="245" y="160" width="2.5" height="2.5" fill="blue"/>
<rect x="250" y="160" width="2.5" height="2.5" fill="blue"/>
<rect x="265" y="160" width="2.5" height="2.5" fill="blue"/>
<rect x="270" y="160" width="2.5" height="2.5" fill="blue"/>
<rect x="275" y="160" width="2.5" height="2.5" fill="blue"/>
<rect x="190" y="165" width="2.5" height="2.5" fill="blue"/>
<rect x="205" y="165" width="2.5" height="2.5" fill="blue"/>
<rect x="210" y="165" width="2.5" height="2.5" fill="blue"/>
<rect x="235" y="165" width="2.5" height="2.5" fill="blue"/>
<rect x="240" y="165" width="2.5" height="2.5" fill="blue"/>
<rect x="255" y="165" width="2.5" height="2.5" fill="blue"/>
<rect x="260" y="165" width="2.5" height="2.5" fill="blue"/>
<rect x="185" y="170" width="2.5" height="2.5" fill="blue"/>
<rect x="195" y="170" width="2.5" height="2.5" fill="blue"/>
<rect x="265" y="170" width="2.5" height="2.5" fill="blue"/>
<rect x="180" y="175" width="2.5" height="2.5" fill="blue"/>
<rect x="200" y="175" width="2.5" height="2.5" fill="blue"/>
<rect x="215" y="175" width="2.5" height="2.5" fill="blue"/>
<rect x="220" y="175" width="2.5" height="2.5" fill="blue"/>
<rect x="230" y="175" width="2.5" height="2.5" fill="blue"/>
<rect x="245" y="175" width="2.5" height="2.5" fill="blue"/>
<rect x="250" y="175" width="2.5" height="2.5" fill="blue"/>
<rect x="265" y="175" width="2.5" height="2.5" fill="blue"/>
<rect x="270" y="175" width="2.5" height="2.5" fill="blue"/>
<rect x="275" y="175" width="2.5" height="2.5" fill="blue"/>
<rect x="200" y="180" width="2.5" height="2.5" fill="blue"/>
<rect x="215" y="180" width="2.5" height="2.5" fill="blue"/>
<rect x="220" y="180" width="2.5" height="2.5" fill="blue"/>
<rect x="225" y="180" width="2.5" height="2.5" fill="blue"/>
<rect x="230" y="180" width="2.5" height="2.5" fill="blue"/>
<rect x="245" y="180" width="2.5" height="2.5" fill="blue"/>
<rect x="250" y="180" width="2.5" height="2.5" fill="blue"/>
<rect x="270" y="180" width="2.5" height="2.5" fill="blue"/>
<rect x="275" y="180" width="2.5" height="2.5" fill="blue"/>
<rect x="195" y="185" width="2.5" height="2.5" fill="blue"/>
<rect x="265" y="185" width="2.5" height="2.5" fill="blue"/>
<rect x="205" y="190" width="2.5" height="2.5" fill="blue"/>
<rect x="210" y="190" width="2.5" height="2.5" fill="blue"/>
<rect x="235" y="190" width="2.5" height="2.5" fill="blue"/>
<rect x="240" y="190" width="2.5" height="2.5" fill="blue"/>
<rect x="255" y="190" width="2.5" height="2.5" fill="blue"/>
<rect x="260" y="190" width="2.5" height="2.5" fill="blue"/>
<rect x="205" y="200" width="2.5" height="2.5" fill="blue"/>
<rect x="215" y="200" width="2.5" height="2.5" fill="blue"/>
<rect x="220" y="200" width="2.5" height="2.5" fill="blue"/>
<rect x="245" y="200" width="2.5" height="2.5" fill="blue"/>
<rect x="275" y="200" width="2.5" height="2.5" fill="blue"/>
<rect x="210" y="205" width="2.5" height="2.5" fill="blue"/>
<rect x="235" y="205" width="2.5" height="2.5" fill="blue"/>
<rect x="240" y="205" width="2.5" height="2.5" fill="blue"/>
<rect x="255" y="205" width="2.5" height="2.5" fill="blue"/>
<rect x="260" y="205" width="2.5" height="2.5" fill="blue"/>
<rect x="235" y="210" width="2.5" height="2.5" fill="blue"/>
<rect x="240" y="210" width="2.5" height="2.5" fill="blue"/>
<rect x="255" y="210" width="2.5" height="2.5" fill="blue"/>
<rect x="260" y="210" width="2.5" height="2.5" fill="blue"/>
<rect x="220" y="215" width="2.5" height="2.5" fill="blue"/>
<rect x="230" y="215" width="2.5" height="2.5" fill="blue"/>
<rect x="250" y="215" width="2.5" height="2.5" fill="blue"/>
<rect x="270" y="215" width="2.5" height="2.5" fill="blue"/>
<rect x="275" y="215" width="2.5" height="2.5" fill="blue"/>
<rect x="245" y="220" width="2.5" height="2.5" fill="blue"/>
<rect x="265" y="220" width="2.5" height="2.5" fill="blue"/>
<rect x="235" y="225" width="2.5" height="2.5" fill="blue"/>
<rect x="265" y="225" width="2.5" height="2.5" fill="blue"/>
<rect x="265" y="230" width="2.5" height="2.5" fill="blue"/>
<rect x="270" y="230" width="2.5" height="2.5" fill="blue"/>
<rect x="275" y="230" width="2.5" height="2.5" fill="blue"/>
<rect x="240" y="235" width="2.5" height="2.5" fill="blue"/>
<rect x="255" y="240" width="2.5" height="2.5" fill="blue"/>
<rect x="260" y="240" width="2.5" height="2.5" fill="blue"/>
<rect x="250" y="245" width="2.5" height="2.5" fill="blue"/>
<rect x="260" y="245" width="2.5" height="2.5" fill="blue"/>
<rect x="265" y="245" width="2.5" height="2.5" fill="blue"/>
<rect x="270" y="245" width="2.5" height="2.5" fill="blue"/>
<rect x="275" y="245" width="2.5" height="2.5" fill="blue"/>
<rect x="260" y="250" width="2.5" height="2.5" fill="blue"/>
<rect x="265" y="250" width="2.5" height="2.5" fill="blue"/>
<rect x="270" y="250" width="2.5" height="2.5" fill="blue"/>
<rect x="275" y="250" width="2.5" height="2.5" fill="blue"/>
<rect x="260" y="255" width="2.5" height="2.5" fill="blue"/>
<rect x="265" y="260" width="2.5" height="2.5" fill="blue"/>
<rect x="270" y="260" width="2.5" height="2.5" fill="blue"/>
<rect x="275" y="260" width="2.5" height="2.5" fill="blue"/>
<rect x="270" y="265" width="2.5" height="2.5" fill="blue"/>
<rect x="275" y="265" width="2.5" height="2.5" fill="blue"/>
<rect x="275" y="270" width="2.5" height="2.5" fill="blue"/>
<text x="285" y="5" font-size="5" fill="black">0</text>
<text x="285" y="275" font-size="5" fill="black">56</text>
<polyline points="285,10,285,270" stroke="black" stroke-width="1" fill="none"/>
<text x="5" y="285" font-size="5" fill="black">0</text>
<text x="275" y="285" font-size="5" fill="black">56</text>
<polyline points="10,285,270,285" stroke="black" stroke-width="1" fill="none"/>
</svg>